<?xml version="1.0" encoding="UTF-8" standalone="no"?>
<!-- Created with Inkscape (http://www.inkscape.org/) -->

<svg
   xmlns:dc="http://purl.org/dc/elements/1.1/"
   xmlns:cc="http://creativecommons.org/ns#"
   xmlns:rdf="http://www.w3.org/1999/02/22-rdf-syntax-ns#"
   xmlns:svg="http://www.w3.org/2000/svg"
   xmlns="http://www.w3.org/2000/svg"
   xmlns:sodipodi="http://sodipodi.sourceforge.net/DTD/sodipodi-0.dtd"
   xmlns:inkscape="http://www.inkscape.org/namespaces/inkscape"
   width="297.96448"
   height="260.43771"
   id="svg2"
   version="1.1"
   inkscape:version="0.48.4 r9939"
   sodipodi:docname="daqpipe-file.svg"
   inkscape:export-filename="daqpipe-file.png"
   inkscape:export-xdpi="151.02"
   inkscape:export-ydpi="151.02">
  <defs
     id="defs4" />
  <sodipodi:namedview
     id="base"
     pagecolor="#ffffff"
     bordercolor="#666666"
     borderopacity="1.0"
     inkscape:pageopacity="0.0"
     inkscape:pageshadow="2"
     inkscape:zoom="1.979899"
     inkscape:cx="300.1041"
     inkscape:cy="124.47563"
     inkscape:document-units="px"
     inkscape:current-layer="layer1"
     showgrid="false"
     fit-margin-top="0"
     fit-margin-left="0"
     fit-margin-right="0"
     fit-margin-bottom="0"
     inkscape:window-width="2560"
     inkscape:window-height="1374"
     inkscape:window-x="0"
     inkscape:window-y="27"
     inkscape:window-maximized="1" />
  <metadata
     id="metadata7">
    <rdf:RDF>
      <cc:Work
         rdf:about="">
        <dc:format>image/svg+xml</dc:format>
        <dc:type
           rdf:resource="http://purl.org/dc/dcmitype/StillImage" />
        <dc:title />
      </cc:Work>
    </rdf:RDF>
  </metadata>
  <g
     inkscape:label="Calque 1"
     inkscape:groupmode="layer"
     id="layer1"
     transform="translate(-77.14286,-44.235018)">
    <rect
       style="opacity:0.98168497;fill:#00aad4;stroke-width:1;stroke-miterlimit:4;stroke-dasharray:1, 1;stroke-dashoffset:0"
       id="rect2985"
       width="90.383133"
       height="24.727463"
       x="77.14286"
       y="72.362183"
       ry="0" />
    <text
       xml:space="preserve"
       style="font-size:11.93739605px;font-style:normal;font-weight:normal;line-height:125%;letter-spacing:0px;word-spacing:0px;fill:#ffffff;fill-opacity:1;stroke:none;font-family:sans-serif"
       x="90.785599"
       y="88.989265"
       id="text2987"
       sodipodi:linespacing="125%"><tspan
         sodipodi:role="line"
         id="tspan2989"
         x="90.785599"
         y="88.989265">FileHeader</tspan></text>
    <rect
       style="opacity:0.98168497;fill:#800000;stroke-width:1;stroke-miterlimit:4;stroke-dasharray:1, 1;stroke-dashoffset:0"
       id="rect2985-3"
       width="90.383133"
       height="39.222874"
       x="77.14286"
       y="97.089645"
       ry="0" />
    <text
       xml:space="preserve"
       style="font-size:11.93739605px;font-style:normal;font-weight:normal;line-height:125%;letter-spacing:0px;word-spacing:0px;fill:#ffffff;fill-opacity:1;stroke:none;font-family:sans-serif"
       x="83.111565"
       y="120.5381"
       id="text2987-6"
       sodipodi:linespacing="125%"><tspan
         sodipodi:role="line"
         id="tspan2989-7"
         x="83.111565"
         y="120.5381">FileEventMap</tspan></text>
    <rect
       style="opacity:0.98168497;fill:#bc5fd3;stroke-width:1;stroke-miterlimit:4;stroke-dasharray:1, 1;stroke-dashoffset:0"
       id="rect2985-3-5"
       width="90.383133"
       height="24.301128"
       x="77.14286"
       y="135.45984"
       ry="0" />
    <text
       xml:space="preserve"
       style="font-size:11.93739605px;font-style:normal;font-weight:normal;line-height:125%;letter-spacing:0px;word-spacing:0px;fill:#ffffff;fill-opacity:1;stroke:none;font-family:sans-serif"
       x="107.09668"
       y="151.5432"
       id="text2987-6-3"
       sodipodi:linespacing="125%"><tspan
         sodipodi:role="line"
         id="tspan2989-7-5"
         x="107.09668"
         y="151.5432">Meta</tspan></text>
    <rect
       style="opacity:0.98168497;fill:#00aad4;stroke-width:1;stroke-miterlimit:4;stroke-dasharray:1, 1;stroke-dashoffset:0"
       id="rect2985-6"
       width="90.383133"
       height="56.276295"
       x="77.14286"
       y="159.76097"
       ry="0" />
    <text
       xml:space="preserve"
       style="font-size:11.93739605px;font-style:normal;font-weight:normal;line-height:125%;letter-spacing:0px;word-spacing:0px;fill:#ffffff;fill-opacity:1;stroke:none;font-family:sans-serif"
       x="107.89148"
       y="191.73947"
       id="text2987-6-3-2"
       sodipodi:linespacing="125%"><tspan
         sodipodi:role="line"
         id="tspan2989-7-5-9"
         x="107.89148"
         y="191.73947">Data</tspan></text>
    <rect
       style="opacity:0.98168497;fill:#bc5fd3;stroke-width:1;stroke-miterlimit:4;stroke-dasharray:1, 1;stroke-dashoffset:0"
       id="rect2985-3-5-1"
       width="90.383133"
       height="24.301128"
       x="77.14286"
       y="215.65358"
       ry="0" />
    <text
       xml:space="preserve"
       style="font-size:11.93739605px;font-style:normal;font-weight:normal;line-height:125%;letter-spacing:0px;word-spacing:0px;fill:#ffffff;fill-opacity:1;stroke:none;font-family:sans-serif"
       x="107.09668"
       y="231.73692"
       id="text2987-6-3-27"
       sodipodi:linespacing="125%"><tspan
         sodipodi:role="line"
         id="tspan2989-7-5-0"
         x="107.09668"
         y="231.73692">Meta</tspan></text>
    <rect
       style="opacity:0.98168497;fill:#00aad4;stroke-width:1;stroke-miterlimit:4;stroke-dasharray:1, 1;stroke-dashoffset:0"
       id="rect2985-6-9"
       width="90.383133"
       height="56.276295"
       x="77.14286"
       y="239.95471"
       ry="0" />
    <text
       xml:space="preserve"
       style="font-size:11.93739605px;font-style:normal;font-weight:normal;line-height:125%;letter-spacing:0px;word-spacing:0px;fill:#ffffff;fill-opacity:1;stroke:none;font-family:sans-serif"
       x="107.89148"
       y="271.9332"
       id="text2987-6-3-2-3"
       sodipodi:linespacing="125%"><tspan
         sodipodi:role="line"
         id="tspan2989-7-5-9-6"
         x="107.89148"
         y="271.9332">Data</tspan></text>
    <rect
       style="opacity:0.98168497;fill:#a05a2c;stroke-width:1;stroke-miterlimit:4;stroke-dasharray:1, 1;stroke-dashoffset:0"
       id="rect2985-3-5-0"
       width="90.383133"
       height="10.671925"
       x="210.50714"
       y="233.53865"
       ry="0" />
    <rect
       style="opacity:0.98168497;fill:#217844;stroke-width:1;stroke-miterlimit:4;stroke-dasharray:1, 1;stroke-dashoffset:0"
       id="rect2985-6-6"
       width="90.383133"
       height="24.71393"
       x="210.50714"
       y="244.21057"
       ry="0" />
    <rect
       style="opacity:0.98168497;fill:#a05a2c;stroke-width:1;stroke-miterlimit:4;stroke-dasharray:1, 1;stroke-dashoffset:0"
       id="rect2985-3-5-0-1"
       width="90.383133"
       height="10.671925"
       x="210.50714"
       y="268.92447"
       ry="0" />
    <rect
       style="opacity:0.98168497;fill:#217844;stroke-width:1;stroke-miterlimit:4;stroke-dasharray:1, 1;stroke-dashoffset:0"
       id="rect2985-6-6-8"
       width="90.383133"
       height="24.71393"
       x="210.50714"
       y="279.59641"
       ry="0" />
    <path
       style="fill:none;stroke:#000000;stroke-width:0.29843488px;stroke-linecap:butt;stroke-linejoin:miter;stroke-opacity:1"
       d="m 168.72626,296.42313 41.78089,8.10038"
       id="path3201"
       inkscape:connector-curvature="0" />
    <path
       style="fill:none;stroke:#000000;stroke-width:0.29843488px;stroke-linecap:butt;stroke-linejoin:miter;stroke-opacity:1"
       d="m 167.44725,240.99951 41.78089,-7.67404"
       id="path3203"
       inkscape:connector-curvature="0" />
    <text
       xml:space="preserve"
       style="font-size:11.93739605px;font-style:normal;font-weight:normal;line-height:125%;letter-spacing:0px;word-spacing:0px;fill:#ffffff;fill-opacity:1;stroke:none;font-family:sans-serif"
       x="222.0182"
       y="241.42584"
       id="text3205"
       sodipodi:linespacing="125%"><tspan
         sodipodi:role="line"
         id="tspan3207"
         x="222.0182"
         y="241.42584"
         style="font-size:8.35617733px;fill:#ffffff">FragmentHeader</tspan></text>
    <text
       xml:space="preserve"
       style="font-size:11.93739605px;font-style:normal;font-weight:normal;line-height:125%;letter-spacing:0px;word-spacing:0px;fill:#ffffff;fill-opacity:1;stroke:none;font-family:sans-serif"
       x="224.95638"
       y="258.65289"
       id="text3205-7"
       sodipodi:linespacing="125%"><tspan
         sodipodi:role="line"
         id="tspan3207-9"
         x="224.95638"
         y="258.65289"
         style="font-size:8.35617733px;fill:#ffffff">FragmentData</tspan></text>
    <text
       xml:space="preserve"
       style="font-size:40px;font-style:normal;font-weight:normal;line-height:125%;letter-spacing:0px;word-spacing:0px;fill:#000000;fill-opacity:1;stroke:none;font-family:sans-serif"
       x="318.94034"
       y="235.40892"
       id="text3232"
       sodipodi:linespacing="125%"><tspan
         sodipodi:role="line"
         x="318.94034"
         y="235.40892"
         style="font-size:10px"
         id="tspan3252">+bxi</tspan><tspan
         sodipodi:role="line"
         x="318.94034"
         y="247.90892"
         style="font-size:10px"
         id="tspan3364">+size (bits)</tspan></text>
    <path
       style="fill:none;stroke:#000000;stroke-width:1.01771128px;stroke-linecap:butt;stroke-linejoin:miter;stroke-opacity:1"
       d="m 191.78521,81.10051 -25.11004,0"
       id="path3276"
       inkscape:connector-curvature="0" />
    <text
       xml:space="preserve"
       style="font-size:40px;font-style:normal;font-weight:normal;line-height:125%;letter-spacing:0px;word-spacing:0px;fill:#000000;fill-opacity:1;stroke:none;font-family:sans-serif"
       x="205.56606"
       y="141.20459"
       id="text3278"
       sodipodi:linespacing="125%"><tspan
         sodipodi:role="line"
         id="tspan3280"
         x="205.56606"
         y="141.20459"
         style="font-size:10px">For each event</tspan></text>
    <path
       style="fill:none;stroke:#000000;stroke-width:1px;stroke-linecap:butt;stroke-linejoin:miter;stroke-opacity:1"
       d="m 169.20055,114.43554 c 16.66752,0.50508 0.50508,23.73859 30.80965,23.23351"
       id="path3282"
       inkscape:connector-curvature="0" />
    <text
       xml:space="preserve"
       style="font-size:40px;font-style:normal;font-weight:normal;line-height:125%;letter-spacing:0px;word-spacing:0px;fill:#000000;fill-opacity:1;stroke:none;font-family:sans-serif"
       x="204.71803"
       y="173.45613"
       id="text3278-0"
       sodipodi:linespacing="125%"><tspan
         sodipodi:role="line"
         id="tspan3280-2"
         x="204.71803"
         y="173.45613"
         style="font-size:10px">Size of each fragment (bytes)</tspan></text>
    <path
       style="fill:none;stroke:#000000;stroke-width:1px;stroke-linecap:butt;stroke-linejoin:miter;stroke-opacity:1"
       d="m 168.35253,146.68708 c 16.66752,0.50508 0.50508,23.73859 30.80965,23.23351"
       id="path3282-3"
       inkscape:connector-curvature="0" />
    <text
       xml:space="preserve"
       style="font-size:40px;font-style:normal;font-weight:normal;line-height:125%;letter-spacing:0px;word-spacing:0px;fill:#000000;fill-opacity:1;stroke:none;font-family:sans-serif"
       x="195.99786"
       y="52.568386"
       id="text3232-7"
       sodipodi:linespacing="125%"><tspan
         sodipodi:role="line"
         x="195.99786"
         y="52.568386"
         style="font-size:10px"
         id="tspan3248-5">+ dateTime</tspan><tspan
         sodipodi:role="line"
         x="195.99786"
         y="65.06839"
         style="font-size:10px"
         id="tspan3236-9">+ baseEventid</tspan><tspan
         sodipodi:role="line"
         x="195.99786"
         y="77.56839"
         style="font-size:10px"
         id="tspan3238-2">+ events</tspan><tspan
         sodipodi:role="line"
         x="195.99786"
         y="90.06839"
         style="font-size:10px"
         id="tspan3240-2">+ units</tspan><tspan
         sodipodi:role="line"
         x="195.99786"
         y="102.56839"
         style="font-size:10px"
         id="tspan3244-8">+ rails</tspan><tspan
         sodipodi:role="line"
         x="195.99786"
         y="115.06839"
         style="font-size:10px"
         id="tspan3252-9">+formatVersion</tspan></text>
    <path
       style="fill:none;stroke:#000000;stroke-width:1px;stroke-linecap:butt;stroke-linejoin:miter;stroke-opacity:1"
       d="m 191.92898,44.735018 0,73.741132"
       id="path3366"
       inkscape:connector-curvature="0" />
    <path
       style="fill:none;stroke:#000000;stroke-width:1.01771128px;stroke-linecap:butt;stroke-linejoin:miter;stroke-opacity:1"
       d="m 315.16613,238.99997 -14.21718,0"
       id="path3276-7"
       inkscape:connector-curvature="0"
       sodipodi:nodetypes="cc" />
    <path
       style="fill:none;stroke:#000000;stroke-width:1px;stroke-linecap:butt;stroke-linejoin:miter;stroke-opacity:1"
       d="m 315.57776,227.63447 0,21.77684"
       id="path3366-3"
       inkscape:connector-curvature="0"
       sodipodi:nodetypes="cc" />
    <text
       xml:space="preserve"
       style="font-size:40px;font-style:normal;font-weight:normal;line-height:125%;letter-spacing:0px;word-spacing:0px;fill:#000000;fill-opacity:1;stroke:none;font-family:sans-serif"
       x="286.27271"
       y="136.73955"
       id="text3232-7-7"
       sodipodi:linespacing="125%"><tspan
         sodipodi:role="line"
         x="286.27271"
         y="136.73955"
         style="font-size:10px"
         id="tspan3252-9-8">+ EventID</tspan><tspan
         sodipodi:role="line"
         x="286.27271"
         y="149.23955"
         style="font-size:10px"
         id="tspan3086">+ size (bytes)</tspan></text>
    <path
       style="fill:none;stroke:#000000;stroke-width:0.62594676px;stroke-linecap:butt;stroke-linejoin:miter;stroke-opacity:1"
       d="m 283.71905,126.07671 0,28.89247"
       id="path3366-6"
       inkscape:connector-curvature="0" />
  </g>
</svg>
