<?xml version="1.0" encoding="UTF-8" standalone="no"?>
<!-- Created with Inkscape (http://www.inkscape.org/) -->

<svg
   xmlns:dc="http://purl.org/dc/elements/1.1/"
   xmlns:cc="http://creativecommons.org/ns#"
   xmlns:rdf="http://www.w3.org/1999/02/22-rdf-syntax-ns#"
   xmlns:svg="http://www.w3.org/2000/svg"
   xmlns="http://www.w3.org/2000/svg"
   xmlns:sodipodi="http://sodipodi.sourceforge.net/DTD/sodipodi-0.dtd"
   xmlns:inkscape="http://www.inkscape.org/namespaces/inkscape"
   width="499.92859"
   height="443.3999"
   id="svg2"
   version="1.1"
   inkscape:version="0.48.4 r9939"
   sodipodi:docname="Nouveau document 1">
  <defs
     id="defs4" />
  <sodipodi:namedview
     id="base"
     pagecolor="#ffffff"
     bordercolor="#666666"
     borderopacity="1.0"
     inkscape:pageopacity="0.0"
     inkscape:pageshadow="2"
     inkscape:zoom="1.4"
     inkscape:cx="251.4037"
     inkscape:cy="258.79157"
     inkscape:document-units="px"
     inkscape:current-layer="layer1"
     showgrid="false"
     inkscape:window-width="1279"
     inkscape:window-height="1374"
     inkscape:window-x="1280"
     inkscape:window-y="27"
     inkscape:window-maximized="0"
     fit-margin-top="0"
     fit-margin-left="0"
     fit-margin-right="0"
     fit-margin-bottom="0" />
  <metadata
     id="metadata7">
    <rdf:RDF>
      <cc:Work
         rdf:about="">
        <dc:format>image/svg+xml</dc:format>
        <dc:type
           rdf:resource="http://purl.org/dc/dcmitype/StillImage" />
        <dc:title></dc:title>
      </cc:Work>
    </rdf:RDF>
  </metadata>
  <g
     inkscape:label="Calque 1"
     inkscape:groupmode="layer"
     id="layer1"
     transform="translate(-58.07143,-167.67653)">
    <rect
       style="fill:#aaccff;fill-opacity:1;stroke:none"
       id="rect2985"
       width="114.14723"
       height="122.22846"
       x="64.649765"
       y="169.48886"
       ry="15.805405" />
    <text
       xml:space="preserve"
       style="font-size:40px;font-style:normal;font-weight:normal;line-height:125%;letter-spacing:0px;word-spacing:0px;fill:#000000;fill-opacity:1;stroke:none;font-family:Sans"
       x="91.923882"
       y="193.22743"
       id="text2987"
       sodipodi:linespacing="125%"><tspan
         sodipodi:role="line"
         id="tspan2989"
         x="91.923882"
         y="193.22743"
         style="font-size:20px;font-style:normal;font-variant:normal;font-weight:bold;font-stretch:normal;font-family:Nimbus Roman No9 L;-inkscape-font-specification:Nimbus Roman No9 L Bold">Node 0</tspan></text>
    <rect
       style="fill:#2a7fff;fill-opacity:1;stroke:none"
       id="rect2991"
       width="43.436558"
       height="35.030449"
       x="75.256363"
       y="209.26974"
       ry="12.046282" />
    <text
       xml:space="preserve"
       style="font-size:40px;font-style:normal;font-weight:normal;line-height:125%;letter-spacing:0px;word-spacing:0px;fill:#000000;fill-opacity:1;stroke:none;font-family:Sans"
       x="83.995598"
       y="231.52466"
       id="text2987-4"
       sodipodi:linespacing="125%"><tspan
         sodipodi:role="line"
         id="tspan2989-8"
         x="83.995598"
         y="231.52466"
         style="font-size:16px;font-style:normal;font-variant:normal;font-weight:normal;font-stretch:normal;font-family:Nimbus Roman No9 L;-inkscape-font-specification:Nimbus Roman No9 L">EM</tspan></text>
    <rect
       style="fill:#aaccff;fill-opacity:1;stroke:none"
       id="rect2985-6"
       width="114.14723"
       height="122.22846"
       x="189.15106"
       y="168.98378"
       ry="15.805405" />
    <text
       xml:space="preserve"
       style="font-size:40px;font-style:normal;font-weight:normal;line-height:125%;letter-spacing:0px;word-spacing:0px;fill:#000000;fill-opacity:1;stroke:none;font-family:Sans"
       x="220.97087"
       y="191.7122"
       id="text2987-8"
       sodipodi:linespacing="125%"><tspan
         sodipodi:role="line"
         id="tspan2989-0"
         x="220.97087"
         y="191.7122"
         style="font-size:20px;font-style:normal;font-variant:normal;font-weight:bold;font-stretch:normal;font-family:Nimbus Roman No9 L;-inkscape-font-specification:Nimbus Roman No9 L Bold">Node 1</tspan></text>
    <rect
       style="fill:#2a7fff;fill-opacity:1;stroke:none"
       id="rect2991-5"
       width="43.436558"
       height="35.030449"
       x="199.75768"
       y="208.8848"
       ry="12.046282" />
    <text
       xml:space="preserve"
       style="font-size:40px;font-style:normal;font-weight:normal;line-height:125%;letter-spacing:0px;word-spacing:0px;fill:#000000;fill-opacity:1;stroke:none;font-family:Sans"
       x="210.5172"
       y="231.95987"
       id="text2987-4-3"
       sodipodi:linespacing="125%"><tspan
         sodipodi:role="line"
         id="tspan2989-8-0"
         x="210.5172"
         y="231.95987"
         style="font-size:16px;font-style:normal;font-variant:normal;font-weight:normal;font-stretch:normal;font-family:Nimbus Roman No9 L;-inkscape-font-specification:Nimbus Roman No9 L">BU</tspan></text>
    <rect
       style="fill:#ddafe9;fill-opacity:1;stroke:none"
       id="rect2985-6-4"
       width="114.14723"
       height="122.22846"
       x="311.59146"
       y="168.4787"
       ry="15.805405" />
    <text
       xml:space="preserve"
       style="font-size:40px;font-style:normal;font-weight:normal;line-height:125%;letter-spacing:0px;word-spacing:0px;fill:#000000;fill-opacity:1;stroke:none;font-family:Sans"
       x="343.41129"
       y="191.20712"
       id="text2987-8-0"
       sodipodi:linespacing="125%"><tspan
         sodipodi:role="line"
         id="tspan2989-0-9"
         x="343.41129"
         y="191.20712"
         style="font-size:20px;font-style:normal;font-variant:normal;font-weight:bold;font-stretch:normal;font-family:Nimbus Roman No9 L;-inkscape-font-specification:Nimbus Roman No9 L Bold">Node 2</tspan></text>
    <rect
       style="fill:#2a7fff;fill-opacity:1;stroke:none"
       id="rect2991-5-0"
       width="43.436558"
       height="35.030449"
       x="245.97215"
       y="208.54218"
       ry="12.046282" />
    <text
       xml:space="preserve"
       style="font-size:40px;font-style:normal;font-weight:normal;line-height:125%;letter-spacing:0px;word-spacing:0px;fill:#000000;fill-opacity:1;stroke:none;font-family:Sans"
       x="256.73166"
       y="231.61725"
       id="text2987-4-3-5"
       sodipodi:linespacing="125%"><tspan
         sodipodi:role="line"
         id="tspan2989-8-0-5"
         x="256.73166"
         y="231.61725"
         style="font-size:16px;font-style:normal;font-variant:normal;font-weight:normal;font-stretch:normal;font-family:Nimbus Roman No9 L;-inkscape-font-specification:Nimbus Roman No9 L">RU</tspan></text>
    <rect
       style="fill:#2a7fff;fill-opacity:1;stroke:none"
       id="rect2991-5-0-7"
       width="43.436558"
       height="35.030449"
       x="199.50513"
       y="246.92798"
       ry="12.046282" />
    <text
       xml:space="preserve"
       style="font-size:40px;font-style:normal;font-weight:normal;line-height:125%;letter-spacing:0px;word-spacing:0px;fill:#000000;fill-opacity:1;stroke:none;font-family:Sans"
       x="210.26465"
       y="270.00305"
       id="text2987-4-3-5-7"
       sodipodi:linespacing="125%"><tspan
         sodipodi:role="line"
         id="tspan2989-8-0-5-5"
         x="210.26465"
         y="270.00305"
         style="font-size:16px;font-style:normal;font-variant:normal;font-weight:normal;font-stretch:normal;font-family:Nimbus Roman No9 L;-inkscape-font-specification:Nimbus Roman No9 L">PU</tspan></text>
    <rect
       style="fill:#bc5fd3;fill-opacity:1;stroke:none"
       id="rect2991-5-6"
       width="43.436558"
       height="35.030449"
       x="322.87"
       y="209.21857"
       ry="12.046282" />
    <text
       xml:space="preserve"
       style="font-size:40px;font-style:normal;font-weight:normal;line-height:125%;letter-spacing:0px;word-spacing:0px;fill:#000000;fill-opacity:1;stroke:none;font-family:Sans"
       x="333.62952"
       y="232.29364"
       id="text2987-4-3-7"
       sodipodi:linespacing="125%"><tspan
         sodipodi:role="line"
         id="tspan2989-8-0-9"
         x="333.62952"
         y="232.29364"
         style="font-size:16px;font-style:normal;font-variant:normal;font-weight:normal;font-stretch:normal;font-family:Nimbus Roman No9 L;-inkscape-font-specification:Nimbus Roman No9 L">BU</tspan></text>
    <rect
       style="fill:#bc5fd3;fill-opacity:1;stroke:none"
       id="rect2991-5-0-6"
       width="43.436558"
       height="35.030449"
       x="369.08447"
       y="208.87595"
       ry="12.046282" />
    <text
       xml:space="preserve"
       style="font-size:40px;font-style:normal;font-weight:normal;line-height:125%;letter-spacing:0px;word-spacing:0px;fill:#000000;fill-opacity:1;stroke:none;font-family:Sans"
       x="379.84399"
       y="231.95102"
       id="text2987-4-3-5-6"
       sodipodi:linespacing="125%"><tspan
         sodipodi:role="line"
         id="tspan2989-8-0-5-7"
         x="379.84399"
         y="231.95102"
         style="font-size:16px;font-style:normal;font-variant:normal;font-weight:normal;font-stretch:normal;font-family:Nimbus Roman No9 L;-inkscape-font-specification:Nimbus Roman No9 L">RU</tspan></text>
    <rect
       style="fill:#ddafe9;fill-opacity:1;stroke:none"
       id="rect2985-6-4-7"
       width="114.14723"
       height="122.22846"
       x="432.92639"
       y="167.67653"
       ry="15.805405" />
    <text
       xml:space="preserve"
       style="font-size:40px;font-style:normal;font-weight:normal;line-height:125%;letter-spacing:0px;word-spacing:0px;fill:#000000;fill-opacity:1;stroke:none;font-family:Sans"
       x="464.74622"
       y="190.40495"
       id="text2987-8-0-3"
       sodipodi:linespacing="125%"><tspan
         sodipodi:role="line"
         id="tspan2989-0-9-1"
         x="464.74622"
         y="190.40495"
         style="font-size:20px;font-style:normal;font-variant:normal;font-weight:bold;font-stretch:normal;font-family:Nimbus Roman No9 L;-inkscape-font-specification:Nimbus Roman No9 L Bold">Node 4</tspan></text>
    <rect
       style="fill:#bc5fd3;fill-opacity:1;stroke:none"
       id="rect2991-5-6-9"
       width="43.436558"
       height="35.030449"
       x="444.20493"
       y="208.4164"
       ry="12.046282" />
    <text
       xml:space="preserve"
       style="font-size:40px;font-style:normal;font-weight:normal;line-height:125%;letter-spacing:0px;word-spacing:0px;fill:#000000;fill-opacity:1;stroke:none;font-family:Sans"
       x="454.96445"
       y="231.49146"
       id="text2987-4-3-7-0"
       sodipodi:linespacing="125%"><tspan
         sodipodi:role="line"
         id="tspan2989-8-0-9-5"
         x="454.96445"
         y="231.49146"
         style="font-size:16px;font-style:normal;font-variant:normal;font-weight:normal;font-stretch:normal;font-family:Nimbus Roman No9 L;-inkscape-font-specification:Nimbus Roman No9 L">BU</tspan></text>
    <rect
       style="fill:#bc5fd3;fill-opacity:1;stroke:none"
       id="rect2991-5-0-6-3"
       width="43.436558"
       height="35.030449"
       x="490.4194"
       y="208.07378"
       ry="12.046282" />
    <text
       xml:space="preserve"
       style="font-size:40px;font-style:normal;font-weight:normal;line-height:125%;letter-spacing:0px;word-spacing:0px;fill:#000000;fill-opacity:1;stroke:none;font-family:Sans"
       x="501.17892"
       y="231.14883"
       id="text2987-4-3-5-6-4"
       sodipodi:linespacing="125%"><tspan
         sodipodi:role="line"
         id="tspan2989-8-0-5-7-6"
         x="501.17892"
         y="231.14883"
         style="font-size:16px;font-style:normal;font-variant:normal;font-weight:normal;font-stretch:normal;font-family:Nimbus Roman No9 L;-inkscape-font-specification:Nimbus Roman No9 L">RU</tspan></text>
    <rect
       style="fill:#aaccff;fill-opacity:1;stroke:none"
       id="rect2985-6-4-4"
       width="114.14723"
       height="122.22846"
       x="64.354958"
       y="302.67651"
       ry="15.805405" />
    <text
       xml:space="preserve"
       style="font-size:40px;font-style:normal;font-weight:normal;line-height:125%;letter-spacing:0px;word-spacing:0px;fill:#000000;fill-opacity:1;stroke:none;font-family:Sans"
       x="96.174767"
       y="325.40494"
       id="text2987-8-0-2"
       sodipodi:linespacing="125%"><tspan
         sodipodi:role="line"
         id="tspan2989-0-9-7"
         x="96.174767"
         y="325.40494"
         style="font-size:20px;font-style:normal;font-variant:normal;font-weight:bold;font-stretch:normal;font-family:Nimbus Roman No9 L;-inkscape-font-specification:Nimbus Roman No9 L Bold">Node 5</tspan></text>
    <rect
       style="fill:#2a7fff;fill-opacity:1;stroke:none"
       id="rect2991-5-6-1"
       width="43.436558"
       height="35.030449"
       x="75.633492"
       y="343.41635"
       ry="12.046282" />
    <text
       xml:space="preserve"
       style="font-size:40px;font-style:normal;font-weight:normal;line-height:125%;letter-spacing:0px;word-spacing:0px;fill:#000000;fill-opacity:1;stroke:none;font-family:Sans"
       x="86.392998"
       y="366.49142"
       id="text2987-4-3-7-08"
       sodipodi:linespacing="125%"><tspan
         sodipodi:role="line"
         id="tspan2989-8-0-9-8"
         x="86.392998"
         y="366.49142"
         style="font-size:16px;font-style:normal;font-variant:normal;font-weight:normal;font-stretch:normal;font-family:Nimbus Roman No9 L;-inkscape-font-specification:Nimbus Roman No9 L">FU</tspan></text>
    <rect
       style="fill:#2a7fff;fill-opacity:1;stroke:none"
       id="rect2991-5-0-6-7"
       width="43.436558"
       height="35.030449"
       x="121.84795"
       y="343.07376"
       ry="12.046282" />
    <text
       xml:space="preserve"
       style="font-size:40px;font-style:normal;font-weight:normal;line-height:125%;letter-spacing:0px;word-spacing:0px;fill:#000000;fill-opacity:1;stroke:none;font-family:Sans"
       x="132.60747"
       y="366.14883"
       id="text2987-4-3-5-6-7"
       sodipodi:linespacing="125%"><tspan
         sodipodi:role="line"
         id="tspan2989-8-0-5-7-1"
         x="132.60747"
         y="366.14883"
         style="font-size:16px;font-style:normal;font-variant:normal;font-weight:normal;font-stretch:normal;font-family:Nimbus Roman No9 L;-inkscape-font-specification:Nimbus Roman No9 L">FM</tspan></text>
    <rect
       style="fill:#aaccff;fill-opacity:1;stroke:none"
       id="rect2985-6-4-4-0"
       width="114.14723"
       height="122.22846"
       x="187.92639"
       y="302.67651"
       ry="15.805405" />
    <text
       xml:space="preserve"
       style="font-size:40px;font-style:normal;font-weight:normal;line-height:125%;letter-spacing:0px;word-spacing:0px;fill:#000000;fill-opacity:1;stroke:none;font-family:Sans"
       x="219.74619"
       y="325.40494"
       id="text2987-8-0-2-1"
       sodipodi:linespacing="125%"><tspan
         sodipodi:role="line"
         id="tspan2989-0-9-7-2"
         x="219.74619"
         y="325.40494"
         style="font-size:20px;font-style:normal;font-variant:normal;font-weight:bold;font-stretch:normal;font-family:Nimbus Roman No9 L;-inkscape-font-specification:Nimbus Roman No9 L Bold">Node 6</tspan></text>
    <rect
       style="fill:#2a7fff;fill-opacity:1;stroke:none"
       id="rect2991-5-6-1-3"
       width="43.436558"
       height="35.030449"
       x="199.20493"
       y="343.41635"
       ry="12.046282" />
    <text
       xml:space="preserve"
       style="font-size:40px;font-style:normal;font-weight:normal;line-height:125%;letter-spacing:0px;word-spacing:0px;fill:#000000;fill-opacity:1;stroke:none;font-family:Sans"
       x="209.96443"
       y="366.49142"
       id="text2987-4-3-7-08-0"
       sodipodi:linespacing="125%"><tspan
         sodipodi:role="line"
         id="tspan2989-8-0-9-8-2"
         x="209.96443"
         y="366.49142"
         style="font-size:16px;font-style:normal;font-variant:normal;font-weight:normal;font-stretch:normal;font-family:Nimbus Roman No9 L;-inkscape-font-specification:Nimbus Roman No9 L">FU</tspan></text>
    <rect
       style="fill:#ddafe9;fill-opacity:1;stroke:none"
       id="rect2985-6-4-4-6"
       width="114.14723"
       height="122.22846"
       x="312.2121"
       y="304.8194"
       ry="15.805405" />
    <text
       xml:space="preserve"
       style="font-size:40px;font-style:normal;font-weight:normal;line-height:125%;letter-spacing:0px;word-spacing:0px;fill:#000000;fill-opacity:1;stroke:none;font-family:Sans"
       x="344.03192"
       y="327.54782"
       id="text2987-8-0-2-0"
       sodipodi:linespacing="125%"><tspan
         sodipodi:role="line"
         id="tspan2989-0-9-7-26"
         x="344.03192"
         y="327.54782"
         style="font-size:20px;font-style:normal;font-variant:normal;font-weight:bold;font-stretch:normal;font-family:Nimbus Roman No9 L;-inkscape-font-specification:Nimbus Roman No9 L Bold">Node 7</tspan></text>
    <rect
       style="fill:#bc5fd3;fill-opacity:1;stroke:none"
       id="rect2991-5-6-1-4"
       width="43.436558"
       height="35.030449"
       x="323.49063"
       y="345.55923"
       ry="12.046282" />
    <text
       xml:space="preserve"
       style="font-size:40px;font-style:normal;font-weight:normal;line-height:125%;letter-spacing:0px;word-spacing:0px;fill:#000000;fill-opacity:1;stroke:none;font-family:Sans"
       x="334.25015"
       y="368.63431"
       id="text2987-4-3-7-08-3"
       sodipodi:linespacing="125%"><tspan
         sodipodi:role="line"
         id="tspan2989-8-0-9-8-6"
         x="334.25015"
         y="368.63431"
         style="font-size:16px;font-style:normal;font-variant:normal;font-weight:normal;font-stretch:normal;font-family:Nimbus Roman No9 L;-inkscape-font-specification:Nimbus Roman No9 L">FU</tspan></text>
    <rect
       style="fill:#bc5fd3;fill-opacity:1;stroke:none"
       id="rect2991-5-0-6-7-2"
       width="43.436558"
       height="35.030449"
       x="369.70511"
       y="345.21664"
       ry="12.046282" />
    <text
       xml:space="preserve"
       style="font-size:40px;font-style:normal;font-weight:normal;line-height:125%;letter-spacing:0px;word-spacing:0px;fill:#000000;fill-opacity:1;stroke:none;font-family:Sans"
       x="380.4646"
       y="368.29172"
       id="text2987-4-3-5-6-7-2"
       sodipodi:linespacing="125%"><tspan
         sodipodi:role="line"
         id="tspan2989-8-0-5-7-1-3"
         x="380.4646"
         y="368.29172"
         style="font-size:16px;font-style:normal;font-variant:normal;font-weight:normal;font-stretch:normal;font-family:Nimbus Roman No9 L;-inkscape-font-specification:Nimbus Roman No9 L">FM</tspan></text>
    <rect
       style="fill:#ddafe9;fill-opacity:1;stroke:none"
       id="rect2985-6-4-4-5"
       width="114.14723"
       height="122.22846"
       x="435.78354"
       y="305.53366"
       ry="15.805405" />
    <text
       xml:space="preserve"
       style="font-size:40px;font-style:normal;font-weight:normal;line-height:125%;letter-spacing:0px;word-spacing:0px;fill:#000000;fill-opacity:1;stroke:none;font-family:Sans"
       x="467.60333"
       y="328.26208"
       id="text2987-8-0-2-2"
       sodipodi:linespacing="125%"><tspan
         sodipodi:role="line"
         id="tspan2989-0-9-7-7"
         x="467.60333"
         y="328.26208"
         style="font-size:20px;font-style:normal;font-variant:normal;font-weight:bold;font-stretch:normal;font-family:Nimbus Roman No9 L;-inkscape-font-specification:Nimbus Roman No9 L Bold">Node 8</tspan></text>
    <rect
       style="fill:#bc5fd3;fill-opacity:1;stroke:none"
       id="rect2991-5-6-1-44"
       width="43.436558"
       height="35.030449"
       x="447.06207"
       y="346.2735"
       ry="12.046282" />
    <text
       xml:space="preserve"
       style="font-size:40px;font-style:normal;font-weight:normal;line-height:125%;letter-spacing:0px;word-spacing:0px;fill:#000000;fill-opacity:1;stroke:none;font-family:Sans"
       x="457.82156"
       y="369.34857"
       id="text2987-4-3-7-08-1"
       sodipodi:linespacing="125%"><tspan
         sodipodi:role="line"
         id="tspan2989-8-0-9-8-5"
         x="457.82156"
         y="369.34857"
         style="font-size:16px;font-style:normal;font-variant:normal;font-weight:normal;font-stretch:normal;font-family:Nimbus Roman No9 L;-inkscape-font-specification:Nimbus Roman No9 L">FU</tspan></text>
    <rect
       style="fill:none;stroke:#000000;stroke-width:1.09355235;stroke-miterlimit:4;stroke-opacity:1;stroke-dasharray:1.09355233, 2.18710466;stroke-dashoffset:0"
       id="rect3420"
       width="247.7636"
       height="169.19215"
       x="58.618206"
       y="293.12326"
       ry="14.411066" />
    <rect
       style="fill:none;stroke:#000000;stroke-width:1.09355235;stroke-miterlimit:4;stroke-opacity:1;stroke-dasharray:1.09355233, 2.18710466;stroke-dashoffset:0"
       id="rect3420-0"
       width="247.7636"
       height="169.19215"
       x="309.68964"
       y="293.48038"
       ry="14.411066" />
    <text
       xml:space="preserve"
       style="font-size:40px;font-style:normal;font-weight:normal;line-height:125%;letter-spacing:0px;word-spacing:0px;fill:#000000;fill-opacity:1;stroke:none;font-family:Sans"
       x="137.61916"
       y="449.77646"
       id="text2987-8-0-2-4"
       sodipodi:linespacing="125%"><tspan
         sodipodi:role="line"
         id="tspan2989-0-9-7-5"
         x="137.61916"
         y="449.77646"
         style="font-size:20px;font-style:normal;font-variant:normal;font-weight:bold;font-stretch:normal;font-family:Nimbus Roman No9 L;-inkscape-font-specification:Nimbus Roman No9 L Bold">Filter Farm 0</tspan></text>
    <text
       xml:space="preserve"
       style="font-size:40px;font-style:normal;font-weight:normal;line-height:125%;letter-spacing:0px;word-spacing:0px;fill:#000000;fill-opacity:1;stroke:none;font-family:Sans"
       x="375.18323"
       y="448.41791"
       id="text2987-8-0-2-4-3"
       sodipodi:linespacing="125%"><tspan
         sodipodi:role="line"
         id="tspan2989-0-9-7-5-7"
         x="375.18323"
         y="448.41791"
         style="font-size:20px;font-style:normal;font-variant:normal;font-weight:bold;font-stretch:normal;font-family:Nimbus Roman No9 L;-inkscape-font-specification:Nimbus Roman No9 L Bold">Filter Farm 1</tspan></text>
    <text
       xml:space="preserve"
       style="font-size:40px;font-style:normal;font-weight:normal;line-height:125%;letter-spacing:0px;word-spacing:0px;fill:#000000;fill-opacity:1;stroke:none;font-family:Sans"
       x="78.165962"
       y="493.97476"
       id="text2987-4-3-0"
       sodipodi:linespacing="125%"><tspan
         sodipodi:role="line"
         id="tspan2989-8-0-3"
         x="78.165962"
         y="493.97476"
         style="font-size:16px;font-style:normal;font-variant:normal;font-weight:normal;font-stretch:normal;font-family:Nimbus Roman No9 L;-inkscape-font-specification:Nimbus Roman No9 L">EM : Event Manager</tspan><tspan
         sodipodi:role="line"
         x="78.165962"
         y="513.97473"
         style="font-size:16px;font-style:normal;font-variant:normal;font-weight:normal;font-stretch:normal;font-family:Nimbus Roman No9 L;-inkscape-font-specification:Nimbus Roman No9 L"
         id="tspan4273">BU : Builder Unit</tspan><tspan
         sodipodi:role="line"
         x="78.165962"
         y="533.97473"
         style="font-size:16px;font-style:normal;font-variant:normal;font-weight:normal;font-stretch:normal;font-family:Nimbus Roman No9 L;-inkscape-font-specification:Nimbus Roman No9 L"
         id="tspan4275">RU : Readout Unit</tspan><tspan
         sodipodi:role="line"
         x="78.165962"
         y="553.97473"
         style="font-size:16px;font-style:normal;font-variant:normal;font-weight:normal;font-stretch:normal;font-family:Nimbus Roman No9 L;-inkscape-font-specification:Nimbus Roman No9 L"
         id="tspan4277">PU : Profiling Unit</tspan><tspan
         sodipodi:role="line"
         x="78.165962"
         y="573.97473"
         style="font-size:16px;font-style:normal;font-variant:normal;font-weight:normal;font-stretch:normal;font-family:Nimbus Roman No9 L;-inkscape-font-specification:Nimbus Roman No9 L"
         id="tspan4279">FU : Filter Unit</tspan><tspan
         sodipodi:role="line"
         x="78.165962"
         y="593.97473"
         style="font-size:16px;font-style:normal;font-variant:normal;font-weight:normal;font-stretch:normal;font-family:Nimbus Roman No9 L;-inkscape-font-specification:Nimbus Roman No9 L"
         id="tspan4281">FM : Filter Manager</tspan></text>
    <rect
       style="fill:none;stroke:#000000;stroke-width:0.99712992;stroke-miterlimit:4;stroke-opacity:1;stroke-dasharray:0.99712992, 1.99425984;stroke-dashoffset:0"
       id="rect3420-3"
       width="246.43144"
       height="141.43143"
       x="59.641422"
       y="469.14645"
       ry="12.046526" />
  </g>
</svg>
