<?xml version="1.0" encoding="UTF-8" standalone="no"?>
<!-- Created with Inkscape (http://www.inkscape.org/) -->

<svg
   xmlns:dc="http://purl.org/dc/elements/1.1/"
   xmlns:cc="http://creativecommons.org/ns#"
   xmlns:rdf="http://www.w3.org/1999/02/22-rdf-syntax-ns#"
   xmlns:svg="http://www.w3.org/2000/svg"
   xmlns="http://www.w3.org/2000/svg"
   xmlns:sodipodi="http://sodipodi.sourceforge.net/DTD/sodipodi-0.dtd"
   xmlns:inkscape="http://www.inkscape.org/namespaces/inkscape"
   width="772"
   height="244.9265"
   id="svg2"
   version="1.1"
   inkscape:version="0.48.4 r9939"
   sodipodi:docname="Nouveau document 1">
  <defs
     id="defs4">
    <marker
       inkscape:stockid="Arrow1Lend"
       orient="auto"
       refY="0"
       refX="0"
       id="Arrow1Lend"
       style="overflow:visible">
      <path
         id="path4920"
         d="M 0,0 5,-5 -12.5,0 5,5 0,0 z"
         style="fill-rule:evenodd;stroke:#000000;stroke-width:1pt"
         transform="matrix(-0.8,0,0,-0.8,-10,0)"
         inkscape:connector-curvature="0" />
    </marker>
    <inkscape:path-effect
       effect="spiro"
       id="path-effect4911"
       is_visible="true" />
    <inkscape:path-effect
       effect="spiro"
       id="path-effect4907"
       is_visible="true" />
    <marker
       inkscape:stockid="Arrow1Lend"
       orient="auto"
       refY="0"
       refX="0"
       id="Arrow1Lend-6"
       style="overflow:visible">
      <path
         inkscape:connector-curvature="0"
         id="path4920-6"
         d="M 0,0 5,-5 -12.5,0 5,5 0,0 z"
         style="fill-rule:evenodd;stroke:#000000;stroke-width:1pt"
         transform="matrix(-0.8,0,0,-0.8,-10,0)" />
    </marker>
    <inkscape:path-effect
       effect="spiro"
       id="path-effect4911-9"
       is_visible="true" />
    <marker
       inkscape:stockid="Arrow1Lend"
       orient="auto"
       refY="0"
       refX="0"
       id="Arrow1Lend-2"
       style="overflow:visible">
      <path
         inkscape:connector-curvature="0"
         id="path4920-7"
         d="M 0,0 5,-5 -12.5,0 5,5 0,0 z"
         style="fill-rule:evenodd;stroke:#000000;stroke-width:1pt"
         transform="matrix(-0.8,0,0,-0.8,-10,0)" />
    </marker>
    <inkscape:path-effect
       effect="spiro"
       id="path-effect4911-95"
       is_visible="true" />
    <marker
       inkscape:stockid="Arrow1Lend"
       orient="auto"
       refY="0"
       refX="0"
       id="Arrow1Lend-8"
       style="overflow:visible">
      <path
         inkscape:connector-curvature="0"
         id="path4920-66"
         d="M 0,0 5,-5 -12.5,0 5,5 0,0 z"
         style="fill-rule:evenodd;stroke:#000000;stroke-width:1pt"
         transform="matrix(-0.8,0,0,-0.8,-10,0)" />
    </marker>
    <inkscape:path-effect
       effect="spiro"
       id="path-effect4911-6"
       is_visible="true" />
  </defs>
  <sodipodi:namedview
     id="base"
     pagecolor="#ffffff"
     bordercolor="#666666"
     borderopacity="1.0"
     inkscape:pageopacity="0.0"
     inkscape:pageshadow="2"
     inkscape:zoom="1.979899"
     inkscape:cx="343.61224"
     inkscape:cy="89.677192"
     inkscape:document-units="px"
     inkscape:current-layer="layer1"
     showgrid="false"
     inkscape:window-width="2560"
     inkscape:window-height="1374"
     inkscape:window-x="0"
     inkscape:window-y="27"
     inkscape:window-maximized="1"
     showguides="true"
     inkscape:guide-bbox="true"
     fit-margin-top="0"
     fit-margin-left="0"
     fit-margin-right="0"
     fit-margin-bottom="0">
    <sodipodi:guide
       orientation="0,1"
       position="-77.214285,244.99792"
       id="guide4901" />
  </sodipodi:namedview>
  <metadata
     id="metadata7">
    <rdf:RDF>
      <cc:Work
         rdf:about="">
        <dc:format>image/svg+xml</dc:format>
        <dc:type
           rdf:resource="http://purl.org/dc/dcmitype/StillImage" />
        <dc:title></dc:title>
      </cc:Work>
    </rdf:RDF>
  </metadata>
  <g
     inkscape:label="Calque 1"
     inkscape:groupmode="layer"
     id="layer1"
     transform="translate(-27.214285,-22.433612)">
    <rect
       style="fill:#e3f4d7;fill-opacity:1;stroke:#000000;stroke-width:0.87400001;stroke-miterlimit:4;stroke-opacity:1;stroke-dasharray:0.874, 0.874;stroke-dashoffset:0"
       id="rect2985-3-0"
       width="84.850258"
       height="45.09433"
       x="644.90973"
       y="220.84871"
       ry="7.1936121" />
    <rect
       style="fill:#e3f4d7;fill-opacity:1;stroke:#000000;stroke-width:1.55627704;stroke-miterlimit:4;stroke-opacity:1;stroke-dasharray:1.55627692, 1.55627692;stroke-dashoffset:0"
       id="rect2985"
       width="381.15802"
       height="173.71677"
       x="27.992424"
       y="23.21175"
       ry="6.3867435" />
    <text
       xml:space="preserve"
       style="font-size:40px;font-style:normal;font-weight:normal;line-height:125%;letter-spacing:0px;word-spacing:0px;fill:#000000;fill-opacity:1;stroke:none;font-family:Sans"
       x="157.26706"
       y="54.733604"
       id="text4709"
       sodipodi:linespacing="125%"
       inkscape:export-filename="/home/svalat/Projects/lhcb-daqpipe-v2.wiki/images/rect5662-2.png"
       inkscape:export-xdpi="3"
       inkscape:export-ydpi="3"><tspan
         sodipodi:role="line"
         id="tspan4711"
         x="157.26706"
         y="54.733604"
         style="font-size:28px;font-style:normal;font-variant:normal;font-weight:bold;font-stretch:condensed;font-family:PT Sans Narrow;-inkscape-font-specification:PT Sans Narrow Bold Condensed">Node 0</tspan></text>
    <rect
       style="fill:#d7eef4;fill-opacity:1;stroke:#000000;stroke-width:1.66413653;stroke-miterlimit:4;stroke-opacity:1;stroke-dasharray:1.66413651, 1.66413651;stroke-dashoffset:0"
       id="rect2985-4"
       width="173.02635"
       height="96.1558"
       x="41.239002"
       y="87.515228"
       ry="3.5351939" />
    <rect
       style="fill:#d7eef4;fill-opacity:1;stroke:#000000;stroke-width:1.63999176;stroke-miterlimit:4;stroke-opacity:1;stroke-dasharray:1.63999166, 1.63999166;stroke-dashoffset:0"
       id="rect2985-4-0"
       width="167.99973"
       height="96.179947"
       x="229.6088"
       y="85.982269"
       ry="3.5360818" />
    <rect
       style="fill:#ffe680;fill-opacity:1;stroke:#000000;stroke-width:0.84762216;stroke-miterlimit:4;stroke-opacity:1;stroke-dasharray:none;stroke-dashoffset:0"
       id="rect4593"
       width="76.108826"
       height="30.146877"
       x="50.481869"
       y="143.87825"
       ry="0" />
    <rect
       style="fill:#fff6d5;fill-opacity:1;stroke:#000000;stroke-width:0.84762216;stroke-miterlimit:4;stroke-opacity:1;stroke-dasharray:none;stroke-dashoffset:0"
       id="rect4593-1"
       width="76.108826"
       height="30.146877"
       x="130.28391"
       y="143.87825"
       ry="0" />
    <text
       xml:space="preserve"
       style="font-size:18px;font-style:normal;font-weight:normal;line-height:125%;letter-spacing:0px;word-spacing:0px;fill:#000000;fill-opacity:1;stroke:none;font-family:Sans"
       x="62.159187"
       y="141.98265"
       id="text4709-7"
       sodipodi:linespacing="125%"
       inkscape:export-filename="/home/svalat/Projects/lhcb-daqpipe-v2.wiki/images/rect5662-2.png"
       inkscape:export-xdpi="3"
       inkscape:export-ydpi="3"><tspan
         sodipodi:role="line"
         id="tspan4711-8"
         x="62.159187"
         y="141.98265"
         style="font-size:18px;font-style:normal;font-variant:normal;font-weight:bold;font-stretch:condensed;font-family:PT Sans Narrow;-inkscape-font-specification:PT Sans Narrow Bold Condensed">Credit 0</tspan></text>
    <text
       xml:space="preserve"
       style="font-size:18px;font-style:normal;font-weight:normal;line-height:125%;letter-spacing:0px;word-spacing:0px;fill:#000000;fill-opacity:1;stroke:none;font-family:Sans"
       x="74.872612"
       y="111.58289"
       id="text4709-7-2"
       sodipodi:linespacing="125%"
       inkscape:export-filename="/home/svalat/Projects/lhcb-daqpipe-v2.wiki/images/rect5662-2.png"
       inkscape:export-xdpi="3"
       inkscape:export-ydpi="3"><tspan
         sodipodi:role="line"
         id="tspan4711-8-4"
         x="74.872612"
         y="111.58289"
         style="font-size:24px;font-style:normal;font-variant:normal;font-weight:bold;font-stretch:condensed;font-family:PT Sans Narrow;-inkscape-font-specification:PT Sans Narrow Bold Condensed">Builder Unit</tspan></text>
    <text
       xml:space="preserve"
       style="font-size:18px;font-style:normal;font-weight:normal;line-height:125%;letter-spacing:0px;word-spacing:0px;fill:#000000;fill-opacity:1;stroke:none;font-family:Sans"
       x="259.55673"
       y="110.36904"
       id="text4709-7-2-6"
       sodipodi:linespacing="125%"
       inkscape:export-filename="/home/svalat/Projects/lhcb-daqpipe-v2.wiki/images/rect5662-2.png"
       inkscape:export-xdpi="3"
       inkscape:export-ydpi="3"><tspan
         sodipodi:role="line"
         id="tspan4711-8-4-0"
         x="259.55673"
         y="110.36904"
         style="font-size:24px;font-style:normal;font-variant:normal;font-weight:bold;font-stretch:condensed;font-family:PT Sans Narrow;-inkscape-font-specification:PT Sans Narrow Bold Condensed">Readout Unit</tspan></text>
    <text
       xml:space="preserve"
       style="font-size:18px;font-style:normal;font-weight:normal;line-height:125%;letter-spacing:0px;word-spacing:0px;fill:#000000;fill-opacity:1;stroke:none;font-family:Sans"
       x="140.78505"
       y="142.77579"
       id="text4709-7-7"
       sodipodi:linespacing="125%"
       inkscape:export-filename="/home/svalat/Projects/lhcb-daqpipe-v2.wiki/images/rect5662-2.png"
       inkscape:export-xdpi="3"
       inkscape:export-ydpi="3"><tspan
         sodipodi:role="line"
         id="tspan4711-8-9"
         x="140.78505"
         y="142.77579"
         style="font-size:18px;font-style:normal;font-variant:normal;font-weight:bold;font-stretch:condensed;font-family:PT Sans Narrow;-inkscape-font-specification:PT Sans Narrow Bold Condensed">Credit 1</tspan></text>
    <path
       style="fill:none;stroke:#000000;stroke-width:1;stroke-linecap:butt;stroke-linejoin:miter;stroke-miterlimit:4;stroke-opacity:1;stroke-dasharray:1, 2;stroke-dashoffset:0"
       d="m 88.536282,143.92123 0,29.7995"
       id="path4701"
       inkscape:connector-curvature="0" />
    <path
       style="fill:none;stroke:#000000;stroke-width:1;stroke-linecap:butt;stroke-linejoin:miter;stroke-miterlimit:4;stroke-opacity:1;stroke-dasharray:1, 2;stroke-dashoffset:0"
       d="m 168.33832,144.17377 0,29.7995"
       id="path4701-5"
       inkscape:connector-curvature="0" />
    <rect
       style="fill:#ffe680;fill-opacity:1;stroke:#000000;stroke-width:0.59122908;stroke-miterlimit:4;stroke-opacity:1;stroke-dasharray:none;stroke-dashoffset:0"
       id="rect4593-1-5"
       width="36.716732"
       height="30.403271"
       x="239.75726"
       y="143.36682"
       ry="0" />
    <rect
       style="fill:#ffccaa;fill-opacity:1;stroke:#000000;stroke-width:0.59122908;stroke-miterlimit:4;stroke-opacity:1;stroke-dasharray:none;stroke-dashoffset:0"
       id="rect4593-1-5-6"
       width="36.716732"
       height="30.403271"
       x="276.24902"
       y="143.36682"
       ry="0" />
    <rect
       style="fill:#fff6d5;fill-opacity:1;stroke:#000000;stroke-width:0.59122908;stroke-miterlimit:4;stroke-opacity:1;stroke-dasharray:none;stroke-dashoffset:0"
       id="rect4593-1-5-0"
       width="36.716732"
       height="30.403271"
       x="312.99332"
       y="143.36682"
       ry="0" />
    <rect
       style="fill:#fff6d5;fill-opacity:1;stroke:#000000;stroke-width:0.59122908;stroke-miterlimit:4;stroke-opacity:1;stroke-dasharray:none;stroke-dashoffset:0"
       id="rect4593-1-5-3"
       width="36.716732"
       height="30.403271"
       x="349.48511"
       y="143.36682"
       ry="0" />
    <text
       xml:space="preserve"
       style="font-size:18px;font-style:normal;font-weight:normal;line-height:125%;letter-spacing:0px;word-spacing:0px;fill:#000000;fill-opacity:1;stroke:none;font-family:Sans"
       x="238.92284"
       y="142.14001"
       id="text4709-7-7-1"
       sodipodi:linespacing="125%"
       inkscape:export-filename="/home/svalat/Projects/lhcb-daqpipe-v2.wiki/images/rect5662-2.png"
       inkscape:export-xdpi="3"
       inkscape:export-ydpi="3"><tspan
         sodipodi:role="line"
         id="tspan4711-8-9-5"
         x="238.92284"
         y="142.14001"
         style="font-size:18px;font-style:normal;font-variant:normal;font-weight:bold;font-stretch:condensed;font-family:PT Sans Narrow;-inkscape-font-specification:PT Sans Narrow Bold Condensed">Evt 0</tspan></text>
    <rect
       style="fill:#e3f4d7;fill-opacity:1;stroke:#000000;stroke-width:1.55627704;stroke-miterlimit:4;stroke-opacity:1;stroke-dasharray:1.55627692, 1.55627692;stroke-dashoffset:0"
       id="rect2985-3"
       width="381.15802"
       height="173.71677"
       x="417.27814"
       y="24.075228"
       ry="6.3867435" />
    <text
       xml:space="preserve"
       style="font-size:40px;font-style:normal;font-weight:normal;line-height:125%;letter-spacing:0px;word-spacing:0px;fill:#000000;fill-opacity:1;stroke:none;font-family:Sans"
       x="546.5528"
       y="55.597084"
       id="text4709-1"
       sodipodi:linespacing="125%"
       inkscape:export-filename="/home/svalat/Projects/lhcb-daqpipe-v2.wiki/images/rect5662-2.png"
       inkscape:export-xdpi="3"
       inkscape:export-ydpi="3"><tspan
         sodipodi:role="line"
         id="tspan4711-2"
         x="546.5528"
         y="55.597084"
         style="font-size:28px;font-style:normal;font-variant:normal;font-weight:bold;font-stretch:condensed;font-family:PT Sans Narrow;-inkscape-font-specification:PT Sans Narrow Bold Condensed">Node 1</tspan></text>
    <rect
       style="fill:#d7eef4;fill-opacity:1;stroke:#000000;stroke-width:1.66413653;stroke-miterlimit:4;stroke-opacity:1;stroke-dasharray:1.66413651, 1.66413651;stroke-dashoffset:0"
       id="rect2985-4-03"
       width="173.02635"
       height="96.1558"
       x="430.52472"
       y="88.3787"
       ry="3.5351939" />
    <rect
       style="fill:#d7eef4;fill-opacity:1;stroke:#000000;stroke-width:1.63999176;stroke-miterlimit:4;stroke-opacity:1;stroke-dasharray:1.63999166, 1.63999166;stroke-dashoffset:0"
       id="rect2985-4-0-6"
       width="167.99973"
       height="96.179947"
       x="618.89453"
       y="86.845741"
       ry="3.5360818" />
    <rect
       style="fill:#ffccaa;fill-opacity:1;stroke:#000000;stroke-width:0.84762216;stroke-miterlimit:4;stroke-opacity:1;stroke-dasharray:none;stroke-dashoffset:0"
       id="rect4593-9"
       width="76.108826"
       height="30.146877"
       x="439.76758"
       y="144.74174"
       ry="0" />
    <rect
       style="fill:#fff6d5;fill-opacity:1;stroke:#000000;stroke-width:0.84762216;stroke-miterlimit:4;stroke-opacity:1;stroke-dasharray:none;stroke-dashoffset:0"
       id="rect4593-1-1"
       width="76.108826"
       height="30.146877"
       x="519.56964"
       y="144.74174"
       ry="0" />
    <text
       xml:space="preserve"
       style="font-size:18px;font-style:normal;font-weight:normal;line-height:125%;letter-spacing:0px;word-spacing:0px;fill:#000000;fill-opacity:1;stroke:none;font-family:Sans"
       x="464.15833"
       y="112.44635"
       id="text4709-7-2-63"
       sodipodi:linespacing="125%"
       inkscape:export-filename="/home/svalat/Projects/lhcb-daqpipe-v2.wiki/images/rect5662-2.png"
       inkscape:export-xdpi="3"
       inkscape:export-ydpi="3"><tspan
         sodipodi:role="line"
         id="tspan4711-8-4-3"
         x="464.15833"
         y="112.44635"
         style="font-size:24px;font-style:normal;font-variant:normal;font-weight:bold;font-stretch:condensed;font-family:PT Sans Narrow;-inkscape-font-specification:PT Sans Narrow Bold Condensed">Builder Unit</tspan></text>
    <text
       xml:space="preserve"
       style="font-size:18px;font-style:normal;font-weight:normal;line-height:125%;letter-spacing:0px;word-spacing:0px;fill:#000000;fill-opacity:1;stroke:none;font-family:Sans"
       x="648.84247"
       y="111.23251"
       id="text4709-7-2-6-0"
       sodipodi:linespacing="125%"
       inkscape:export-filename="/home/svalat/Projects/lhcb-daqpipe-v2.wiki/images/rect5662-2.png"
       inkscape:export-xdpi="3"
       inkscape:export-ydpi="3"><tspan
         sodipodi:role="line"
         id="tspan4711-8-4-0-3"
         x="648.84247"
         y="111.23251"
         style="font-size:24px;font-style:normal;font-variant:normal;font-weight:bold;font-stretch:condensed;font-family:PT Sans Narrow;-inkscape-font-specification:PT Sans Narrow Bold Condensed">Readout Unit</tspan></text>
    <path
       style="fill:none;stroke:#000000;stroke-width:1;stroke-linecap:butt;stroke-linejoin:miter;stroke-miterlimit:4;stroke-opacity:1;stroke-dasharray:1, 2;stroke-dashoffset:0"
       d="m 477.82199,144.7847 0,29.7995"
       id="path4701-2"
       inkscape:connector-curvature="0" />
    <path
       style="fill:none;stroke:#000000;stroke-width:1;stroke-linecap:butt;stroke-linejoin:miter;stroke-miterlimit:4;stroke-opacity:1;stroke-dasharray:1, 2;stroke-dashoffset:0"
       d="m 557.62404,145.03724 0,29.7995"
       id="path4701-5-9"
       inkscape:connector-curvature="0" />
    <rect
       style="fill:#ffe680;fill-opacity:1;stroke:#000000;stroke-width:0.59122908;stroke-miterlimit:4;stroke-opacity:1;stroke-dasharray:none;stroke-dashoffset:0"
       id="rect4593-1-5-4"
       width="36.716732"
       height="30.403271"
       x="629.04297"
       y="144.2303"
       ry="0" />
    <rect
       style="fill:#ffccaa;fill-opacity:1;stroke:#000000;stroke-width:0.59122908;stroke-miterlimit:4;stroke-opacity:1;stroke-dasharray:none;stroke-dashoffset:0"
       id="rect4593-1-5-6-0"
       width="36.716732"
       height="30.403271"
       x="665.53473"
       y="144.2303"
       ry="0" />
    <rect
       style="fill:#fff6d5;fill-opacity:1;stroke:#000000;stroke-width:0.59122908;stroke-miterlimit:4;stroke-opacity:1;stroke-dasharray:none;stroke-dashoffset:0"
       id="rect4593-1-5-0-1"
       width="36.716732"
       height="30.403271"
       x="702.27905"
       y="144.2303"
       ry="0" />
    <rect
       style="fill:#fff6d5;fill-opacity:1;stroke:#000000;stroke-width:0.59122908;stroke-miterlimit:4;stroke-opacity:1;stroke-dasharray:none;stroke-dashoffset:0"
       id="rect4593-1-5-3-1"
       width="36.716732"
       height="30.403271"
       x="738.77081"
       y="144.2303"
       ry="0" />
    <path
       style="fill:none;stroke:#6e6e11;stroke-width:1px;stroke-linecap:butt;stroke-linejoin:miter;stroke-opacity:1;marker-end:url(#Arrow1Lend)"
       d="m 260.61936,174.03454 c -2.34383,24.60017 -14.70626,48.09805 -33.65192,63.96387 -18.94565,15.86582 -44.24901,23.91071 -68.87857,21.8991 C 136.29009,258.1171 115.20806,248.54849 99.516269,233.31286 83.824481,218.07722 73.638278,197.28656 71.215754,175.54977"
       id="path4909"
       inkscape:path-effect="#path-effect4911"
       inkscape:original-d="m 260.61936,174.03454 c 0,0 -53.03301,85.35789 -102.53049,85.86297 -49.49747,0.50507 -85.357887,-29.29442 -86.873116,-84.34774"
       inkscape:connector-curvature="0"
       sodipodi:nodetypes="csc" />
    <path
       style="fill:none;stroke:#b0a631;stroke-width:1px;stroke-linecap:butt;stroke-linejoin:miter;stroke-opacity:1;marker-end:url(#Arrow1Lend)"
       d="M 650.48791,174.38759 C 571.53335,235.10161 471.7801,268.232 372.19088,266.81655 278.49738,265.48489 185.47829,233.70038 110.56137,177.41805"
       id="path4909-1"
       inkscape:path-effect="#path-effect4911-9"
       inkscape:original-d="m 650.48791,174.38759 c 0,0 -228.79955,91.92388 -278.29703,92.42896 -49.49747,0.50507 -260.11428,-34.34518 -261.62951,-89.3985"
       inkscape:connector-curvature="0"
       sodipodi:nodetypes="csc" />
    <text
       xml:space="preserve"
       style="font-size:18px;font-style:normal;font-weight:normal;line-height:125%;letter-spacing:0px;word-spacing:0px;fill:#000000;fill-opacity:1;stroke:none;font-family:Sans"
       x="279.89713"
       y="141.94875"
       id="text4709-7-7-1-95"
       sodipodi:linespacing="125%"
       inkscape:export-filename="/home/svalat/Projects/lhcb-daqpipe-v2.wiki/images/rect5662-2.png"
       inkscape:export-xdpi="3"
       inkscape:export-ydpi="3"><tspan
         sodipodi:role="line"
         id="tspan4711-8-9-5-6"
         x="279.89713"
         y="141.94875"
         style="font-size:18px;font-style:normal;font-variant:normal;font-weight:bold;font-stretch:condensed;font-family:PT Sans Narrow;-inkscape-font-specification:PT Sans Narrow Bold Condensed">Evt 1</tspan></text>
    <path
       style="fill:none;stroke:#dc7f43;stroke-width:1.07299995;stroke-linecap:butt;stroke-linejoin:miter;stroke-miterlimit:4;stroke-opacity:1;stroke-dasharray:none;marker-end:url(#Arrow1Lend)"
       d="m 295.35406,174.22157 c 9.71533,14.42308 23.26551,26.23744 38.87766,33.89732 15.61215,7.65987 33.24817,11.14658 50.60061,10.00391 30.02051,-1.97686 58.77297,-18.33257 75.8141,-43.1265"
       id="path4909-5"
       inkscape:path-effect="#path-effect4911-95"
       inkscape:original-d="m 295.35406,174.22157 c 0,0 46.28186,43.64299 89.47827,43.90123 43.1964,0.25824 74.49175,-14.97806 75.8141,-43.1265"
       inkscape:connector-curvature="0"
       sodipodi:nodetypes="csc" />
    <path
       style="fill:none;stroke:#dc7f43;stroke-width:1.079;stroke-linecap:butt;stroke-linejoin:miter;stroke-miterlimit:4;stroke-opacity:1;stroke-dasharray:none;marker-end:url(#Arrow1Lend)"
       d="m 686.51158,175.73956 c -26.81874,26.48142 -65.073,40.96247 -102.70501,38.87871 -32.31619,-1.78941 -63.82673,-15.61907 -87.02098,-38.19262"
       id="path4909-52"
       inkscape:path-effect="#path-effect4911-6"
       inkscape:original-d="m 686.51158,175.73956 c 0,0 -53.12328,38.65001 -102.70501,38.87871 -49.58173,0.22869 -85.50319,-13.2645 -87.02098,-38.19262"
       inkscape:connector-curvature="0"
       sodipodi:nodetypes="csc" />
    <text
       xml:space="preserve"
       style="font-size:34.25846863px;font-style:normal;font-weight:normal;line-height:125%;letter-spacing:0px;word-spacing:0px;fill:#000000;fill-opacity:1;stroke:none;font-family:Sans"
       x="54.504887"
       y="190.81758"
       id="text5483"
       sodipodi:linespacing="125%"
       transform="scale(1.1675945,0.85646172)"><tspan
         sodipodi:role="line"
         id="tspan5485"
         x="54.504887"
         y="190.81758"
         style="font-size:11.13400269px">W</tspan></text>
    <text
       xml:space="preserve"
       style="font-size:34.25846863px;font-style:normal;font-weight:normal;line-height:125%;letter-spacing:0px;word-spacing:0px;fill:#000000;fill-opacity:1;stroke:none;font-family:Sans"
       x="86.19944"
       y="189.56841"
       id="text5483-9"
       sodipodi:linespacing="125%"
       transform="scale(1.1675945,0.85646172)"><tspan
         sodipodi:role="line"
         id="tspan5485-7"
         x="86.19944"
         y="189.56841"
         style="font-size:11.13400269px">W</tspan></text>
    <text
       xml:space="preserve"
       style="font-size:34.25846863px;font-style:normal;font-weight:normal;line-height:125%;letter-spacing:0px;word-spacing:0px;fill:#000000;fill-opacity:1;stroke:none;font-family:Sans"
       x="216.83815"
       y="187.79924"
       id="text5483-5"
       sodipodi:linespacing="125%"
       transform="scale(1.1675945,0.85646172)"><tspan
         sodipodi:role="line"
         id="tspan5485-77"
         x="216.83815"
         y="187.79924"
         style="font-size:11.13400269px">R</tspan></text>
    <text
       xml:space="preserve"
       style="font-size:34.25846863px;font-style:normal;font-weight:normal;line-height:125%;letter-spacing:0px;word-spacing:0px;fill:#000000;fill-opacity:1;stroke:none;font-family:Sans"
       x="248.9783"
       y="187.79924"
       id="text5483-5-9"
       sodipodi:linespacing="125%"
       transform="scale(1.1675945,0.85646172)"><tspan
         sodipodi:role="line"
         id="tspan5485-77-6"
         x="248.9783"
         y="187.79924"
         style="font-size:11.13400269px">R</tspan></text>
    <text
       xml:space="preserve"
       style="font-size:34.25846863px;font-style:normal;font-weight:normal;line-height:125%;letter-spacing:0px;word-spacing:0px;fill:#000000;fill-opacity:1;stroke:none;font-family:Sans"
       x="281.11841"
       y="187.79924"
       id="text5483-5-1"
       sodipodi:linespacing="125%"
       transform="scale(1.1675945,0.85646172)"><tspan
         sodipodi:role="line"
         id="tspan5485-77-9"
         x="281.11841"
         y="187.79924"
         style="font-size:11.13400269px">R</tspan></text>
    <text
       xml:space="preserve"
       style="font-size:34.25846863px;font-style:normal;font-weight:normal;line-height:125%;letter-spacing:0px;word-spacing:0px;fill:#000000;fill-opacity:1;stroke:none;font-family:Sans"
       x="313.25854"
       y="187.79924"
       id="text5483-5-0"
       sodipodi:linespacing="125%"
       transform="scale(1.1675945,0.85646172)"><tspan
         sodipodi:role="line"
         id="tspan5485-77-2"
         x="313.25854"
         y="187.79924"
         style="font-size:11.13400269px">R</tspan></text>
    <text
       xml:space="preserve"
       style="font-size:38.87799835px;font-style:normal;font-weight:normal;line-height:125%;letter-spacing:0px;word-spacing:0px;fill:#000000;fill-opacity:1;stroke:none;font-family:Sans"
       x="641.25897"
       y="247.13739"
       id="text5483-90"
       sodipodi:linespacing="125%"
       transform="scale(1.0288596,0.97194993)"><tspan
         sodipodi:role="line"
         id="tspan5485-3"
         x="641.25897"
         y="247.13739"
         style="font-size:12.63534927px">W : Write</tspan><tspan
         sodipodi:role="line"
         x="641.25897"
         y="262.93158"
         style="font-size:12.63534927px"
         id="tspan5586">R : Read</tspan></text>
  </g>
</svg>
