digraph DAQPIPE
{
	//Some fonts
	fontname = "Bitstream Vera Sans"
	fontsize = 8
	
	//configure node
	node [
		fontname = "Bitstream Vera Sans"
		fontsize = 8
		shape = "record"
	]
	
	//configure edge
	edge [
		arrowtail = "empty"
		dir=back
	]
	
	//Transport classes
	Transport [
		label = "{Transport|\l|\l}"
	]
	
	TransportMT [
		label = "{TransportMT|\l|\l}"
	]
	
	//Drivers
	Driver [
		label = "{Driver|\l|\l}"
	]
	
	DriverMPI [
		label = "{DriverMPI|\l|\l}"
	]
	
	DriverLocal [
		label = "{DriverLocal|\l|\l}"
	]
	
	//Nodes
	Unit [
		label = "{Unit|\l|\l}"
	]
	
	BuilderUnit [
		label = "{BuilderUnit|\l|\l}"
	]
	
	ReadoutUnit [
		label = "{ReadoutUnit|\l|\l}"
	]
	
	EventManager [
		label = "{EventManager|\l|\l}"
	]
	
	//Gather
	Gather [
		label = "{Gather|\l|\l}"
	]
	
	//launchers
	Launcher [
		label = "{Launcher|\l|\l}"
	]
	
	LauncherLocal [
		label = "{LauncherLocal|\l|\l}"
	]
	
	LauncherMPI [
		label = "{LauncherMPI|\l|\l}"
	]

	DataSource [
		label = "{DataSource|\l|\l}"
	]

	DummyDataSource [
		label = "{DummyDataSource|\l|\l}"
	]

	PullGather [
		label = "{PullGather|\l|\l}"
	]

	PullGatherSimple [
		label = "{PullGatherSimple|\l|\l}"
	]

	PullGatherSched [
		label = "{PullGatherSched|\l|\l}"
	]

	PushGather [
		label = "{PushGather|\l|\l}"
	]
	
	//inheritance links
	Transport -> TransportMT
	Driver -> DriverMPI
	Driver -> DriverLocal
	Unit -> BuilderUnit
	Unit -> ReadoutUnit
	Unit -> EventManager
	Launcher -> LauncherMPI
	Launcher -> LauncherLocal
	DataSource -> DummyDataSource
	Gather -> PullGather
	Gather -> PushGather
	PullGather -> PullGatherSimple
	PullGather -> PullGatherSched
	
	//composition
	Transport->Driver[constraint=false, arrowtail=odiamond]
	Transport->Unit[constraint=false, arrowtail=odiamond]
	Transport->Launcher[constraint=false, arrowtail=odiamond]
	BuilderUnit->Gather[arrowtail=odiamond]
	ReadoutUnit->DataSource[arrowtail=odiamond]
}
