{
	"benchmarks":{
		"osu": true,
		"stream": true,
		"ubench": true,
		"v1": true,
		"v2": true
	},
	"daqpipe": {
		"general": {
			"time": 30
		},
		"default": {
			"v1": {
				"credits":3,
				"size":2048,
				"freq":100000,
				"channels":64,
				"nodes":16,
				"parallel": 2
			},
			"v2": {
				"credits":2,
				"size":512,
				"freq":1000000,
				"channels":64,
				"nodes":16,
				"parallel":2,
				"random_ratio":20
			}
		},
		"scan": {
			"credits": [1, 2, 3, 4, 5, 6, 8, 10 ],
			"size": [64, 128, 256, 512, 1024, 2048, 3072, 4096, 5120, 6144, 7168, 8192, 9216, 10240],
			"freq": [100, 200, 300, 600, 800, 1000, 2000, 4000, 6000, 8000, 10000, 20000, 40000, 60000, 80000, 100000, 500000, 1000000],
			"nodes": [3, 4, 6, 8, 12, 14, 16],
			"channels": [16, 20, 24, 28, 32, 40, 48, 56, 64],
			"parallel": [2, 3, 4, 5, 6, 8, 10, 12, 14, 16, 18, 20, 24, 28, 32],
			"random": [1, 5, 10, 15, 20, 25, 30, 35, 40, 45, 50],
			"variants": ["std", "one-way", "one-way-2", "simple-sched", "bind", "same-segment"],
			"modes": ["mpi", "libfabric"]
		}
	},
	"ubench": {
		"default": {
			"size":1024,
			"onfly":1,
			"buffers":1,
			"repeat":500,
			"nodes": 16
		},
		"scan": {
			"size": [64, 128, 256, 512, 1024, 2048, 3072, 4096, 5120, 6144, 7168, 8192, 9216, 10240],
			"onfly": [1, 2, 4, 8, 12, 16, 20, 24, 28, 32, 40, 48, 56, 64],
			"nodes": [2, 4, 6, 8, 10, 12, 14, 16],
			"buffers": [1, 2, 4, 8, 16, 32, 64]
		}
	}
}
